{
	"fileVersion": 1,
	"versions": {
		"androidlogger": "0.0.19",
		"argparse": "1.2.0",
		"asciitable": "0.0.16",
		"color": "0.0.9",
		"colored": "0.0.31",
		"mir-algorithm": "3.20.5",
		"mir-core": "1.5.7",
		"mir-cpuid": "1.2.11",
		"mir-ion": "2.1.9",
		"profiled": "0.0.2",
		"silly": "1.1.1",
		"unit-threaded": "2.1.7"
	}
}
